name="Ascension Perks Tweaked"
tags={
	"Balance"
	"Gameplay"
}
picture="ascensionperkstweaked.png"
supported_version="2.7.*"
path="C:/Users/Alexa/Documents/Paradox Interactive/Stellaris/mod/ascensionperkstweaked"
remote_file_id="1591365454"